1.657257257257257166e+01
1.336136136136136088e+01
1.630830830830830891e+01
1.357757757757757844e+01
1.604404404404404261e+01
1.277677677677677615e+01
1.685285285285285184e+01
1.999199199199199128e+01
1.395395395395395433e+01
1.541141141141141091e+01
1.204804804804804874e+01
1.253653653653653599e+01
1.658058058058058037e+01
1.979179179179179116e+01
1.781381381381381246e+01
1.535535535535535523e+01
1.946346346346346223e+01
1.616416416416416268e+01
1.511511511511511507e+01
1.577177177177177114e+01
1.525125125125125081e+01
1.600400400400400258e+01
1.424224224224224145e+01
1.627627627627627760e+01
1.425825825825825888e+01
1.290490490490490494e+01
1.819019019019019012e+01
1.874274274274274177e+01
1.903103103103103066e+01
1.740540540540540349e+01
1.685285285285285184e+01
1.914314314314314203e+01
1.498698698698698806e+01
1.782182182182182117e+01
1.866266266266266172e+01
1.883083083083083054e+01
1.343343343343343399e+01
1.410610610610610571e+01
1.501101101101101065e+01
1.690890890890890930e+01
1.628428428428428276e+01
1.356156156156156101e+01
1.469069069069069045e+01
1.666066066066066043e+01
1.856656656656656779e+01
1.926326326326326210e+01
1.303303303303303373e+01
1.429829829829829890e+01
1.628428428428428276e+01
1.268868868868868915e+01
